<?xml version="1.0" encoding="utf-8"?>
<!-- Generator: Adobe Illustrator 19.0.0, SVG Export Plug-In . SVG Version: 6.00 Build 0)  -->
<svg version="1.1" id="Layer_1" xmlns="http://www.w3.org/2000/svg" xmlns:xlink="http://www.w3.org/1999/xlink" x="0px" y="0px"
	 viewBox="-950 280.2 244 241" style="enable-background:new -950 280.2 244 241;" xml:space="preserve">
<style type="text/css">
	.st0{fill:#BFBFBF;}
</style>
<g id="Layer_1_1_">
	<path class="st0" d="M-944,469.8h48.3v45.5l45.5-45.5H-712V286.1h-232V469.8z M-934.3,295.8h212.7v164.3h-132.5L-886,492v-31.8
		h-48.3V295.8z"/>
	<path class="st0" d="M-866.7,378c0-10.7-8.7-19.3-19.3-19.3s-19.3,8.7-19.3,19.3c0,10.7,8.7,19.3,19.3,19.3S-866.7,388.6-866.7,378
		z M-895.7,378c0-5.3,4.3-9.7,9.7-9.7s9.7,4.3,9.7,9.7c0,5.3-4.3,9.7-9.7,9.7S-895.7,383.3-895.7,378z"/>
	<path class="st0" d="M-828,397.3c10.7,0,19.3-8.7,19.3-19.3c0-10.7-8.7-19.3-19.3-19.3s-19.3,8.7-19.3,19.3
		C-847.3,388.6-838.7,397.3-828,397.3z M-828,368.3c5.3,0,9.7,4.3,9.7,9.7c0,5.3-4.3,9.7-9.7,9.7s-9.7-4.3-9.7-9.7
		C-837.7,372.6-833.3,368.3-828,368.3z"/>
	<path class="st0" d="M-770,397.3c10.7,0,19.3-8.7,19.3-19.3c0-10.7-8.7-19.3-19.3-19.3s-19.3,8.7-19.3,19.3
		C-789.3,388.6-780.7,397.3-770,397.3z M-770,368.3c5.3,0,9.7,4.3,9.7,9.7c0,5.3-4.3,9.7-9.7,9.7s-9.7-4.3-9.7-9.7
		C-779.7,372.6-775.3,368.3-770,368.3z"/>
</g>
</svg>
